…
## `lv()` — Variable Summary

[`lv()`](https://hui950319.github.io/UtilsR/reference/lv.md) provides a
quick overview of variables in a data frame (or Seurat object).

``` r
library(UtilsR)

# All variables
lv(iris)
#> 
#> ── ** summary for Sepal.Length (numeric) ** ────────────────────────────────────
#> ----1. Sepal.Length (numeric) count----------
#> # A tibble: 35 × 2
#>    Sepal.Length     n
#>           <dbl> <int>
#>  1          4.3     1
#>  2          4.4     3
#>  3          4.5     1
#>  4          4.6     4
#>  5          4.7     2
#>  6          4.8     5
#>  7          4.9     6
#>  8          5      10
#>  9          5.1     9
#> 10          5.2     4
#> # ℹ 25 more rows
#> ----2. Sepal.Length (numeric) unique----------
#> [1] .get.flt(Sepal.Length %in% c("5.1","4.9","4.7","4.6","5","5.4","4.4","4.8","..."))
#> 
#> ── ** summary for Sepal.Width (numeric) ** ─────────────────────────────────────
#> ----1. Sepal.Width (numeric) count----------
#> # A tibble: 23 × 2
#>    Sepal.Width     n
#>          <dbl> <int>
#>  1         2       1
#>  2         2.2     3
#>  3         2.3     4
#>  4         2.4     3
#>  5         2.5     8
#>  6         2.6     5
#>  7         2.7     9
#>  8         2.8    14
#>  9         2.9    10
#> 10         3      26
#> # ℹ 13 more rows
#> ----2. Sepal.Width (numeric) unique----------
#> [1] .get.flt(Sepal.Width %in% c("3.5","3","3.2","3.1","3.6","3.9","3.4","2.9","..."))
#> 
#> ── ** summary for Petal.Length (numeric) ** ────────────────────────────────────
#> ----1. Petal.Length (numeric) count----------
#> # A tibble: 43 × 2
#>    Petal.Length     n
#>           <dbl> <int>
#>  1          1       1
#>  2          1.1     1
#>  3          1.2     2
#>  4          1.3     7
#>  5          1.4    13
#>  6          1.5    13
#>  7          1.6     7
#>  8          1.7     4
#>  9          1.9     2
#> 10          3       1
#> # ℹ 33 more rows
#> ----2. Petal.Length (numeric) unique----------
#> [1] .get.flt(Petal.Length %in% c("1.4","1.3","1.5","1.7","1.6","1.1","1.2","1","..."))
#> 
#> ── ** summary for Petal.Width (numeric) ** ─────────────────────────────────────
#> ----1. Petal.Width (numeric) count----------
#> # A tibble: 22 × 2
#>    Petal.Width     n
#>          <dbl> <int>
#>  1         0.1     5
#>  2         0.2    29
#>  3         0.3     7
#>  4         0.4     7
#>  5         0.5     1
#>  6         0.6     1
#>  7         1       7
#>  8         1.1     3
#>  9         1.2     5
#> 10         1.3    13
#> # ℹ 12 more rows
…
#> 
#> ── ** summary for Species (factor) ** ──────────────────────────────────────────
#> ----1. Species (factor) count----------
#> # A tibble: 3 × 2
#>   Species        n
#>   <fct>      <int>
#> 1 setosa        50
#> 2 versicolor    50
#> 3 virginica     50
#> ----2. Species (factor) Levels----------
#> [1] .get.flt(Species %in% c("setosa","versicolor","virginica"))
#> 
#> ── ** summary for Sepal.Length (numeric) ** ────────────────────────────────────
#> ----1. Sepal.Length (numeric) count----------
#> # A tibble: 35 × 2
#>    Sepal.Length     n
#>           <dbl> <int>
#>  1          4.3     1
#>  2          4.4     3
#>  3          4.5     1
#>  4          4.6     4
#>  5          4.7     2
#>  6          4.8     5
#>  7          4.9     6
#>  8          5      10
#>  9          5.1     9
#> 10          5.2     4
#> # ℹ 25 more rows
…
``` r
# Regex pattern matching
lv(iris, pattern = "Sepal")
#> 
#> ── ** summary for Sepal.Length (numeric) ** ────────────────────────────────────
#> ----1. Sepal.Length (numeric) count----------
#> # A tibble: 35 × 2
#>    Sepal.Length     n
#>           <dbl> <int>
#>  1          4.3     1
#>  2          4.4     3
#>  3          4.5     1
#>  4          4.6     4
#>  5          4.7     2
#>  6          4.8     5
#>  7          4.9     6
#>  8          5      10
#>  9          5.1     9
#> 10          5.2     4
#> # ℹ 25 more rows
#> ----2. Sepal.Length (numeric) unique----------
#> [1] .get.flt(Sepal.Length %in% c("5.1","4.9","4.7","4.6","5","5.4","4.4","4.8","..."))
#> 
#> ── ** summary for Sepal.Width (numeric) ** ─────────────────────────────────────
#> ----1. Sepal.Width (numeric) count----------
#> # A tibble: 23 × 2
#>    Sepal.Width     n
#>          <dbl> <int>
#>  1         2       1
#>  2         2.2     3
#>  3         2.3     4
#>  4         2.4     3
#>  5         2.5     8
#>  6         2.6     5
#>  7         2.7     9
#>  8         2.8    14
#>  9         2.9    10
#> 10         3      26
#> # ℹ 13 more rows
…
